{
  "cli": {
    "version": ">= 3.7.2"
  },
  "build": {
    "development": {
      "developmentClient": false,
      "distribution": "internal",
      "ios": {
        "resourceClass": "m-medium"
      }
    },
    "preview": {
      "distribution": "internal",
      "ios": {
        "resourceClass": "m-medium",
        "enterpriseProvisioning": "universal"
      },
      "android":{
        "buildType": "apk"
      }
    },
    "production": {
      "ios": {
        "resourceClass": "m-medium"
      }
    }
  },
  "submit": {
    "production": {}
  }
}
